537822 984388 525
891878 855270 445
424869 136981 449
581959 130598 470
41292 799355 509
994678 799575 525
124230 415570 449
318802 672265 509
105843 562379 470
353691 150715 443
837509 781311 468
646827 329734 509
226290 202316 386
829509 102143 509
736507 914032 525
745498 807699 468
181405 279266 443
360815 615830 470
726370 765392 424
396980 160393 443
307754 245716 407
301705 595037 470
281091 533891 470
923062 368962 525
192222 33069 383
691358 461465 509
860971 359621 525
384371 252741 441
664340 58116 509
125744 712598 509
211885 274167 443
503853 808563 509
14971 900505 525
354180 34805 443
285184 320941 389
273118 718662 509
471581 684276 509
35589 882975 525
620587 105769 470
443802 135418 449
582842 961209 525
824243 399893 509
658500 323878 509
725761 928901 525
284325 967722 525
71686 990406 525
630868 252320 509
36113 2854 324
999491 793889 525
925426 637478 525
380550 424364 449
833828 736503 468
981038 649869 525
751463 153791 509
793191 858672 525
312193 295834 371
940921 567390 525
421708 976338 525
571917 363065 470
20626 980867 525
424601 160841 449
237841 25199 443
547882 310652 470
20172 756728 509
857405 497562 525
979961 601770 525
854830 384891 525
935279 59543 525
723965 375492 509
555142 979061 525
228275 491969 449
873989 236037 525
703409 526696 509
171313 145143 383
464870 296834 449
857201 613686 525
756079 833419 468
38123 721815 509
978227 710897 525
221771 35116 386
975106 853199 507
606397 702049 509
588497 567135 434
468535 628267 509
621022 978736 525
678287 557626 509
927043 751729 525
968918 730195 525
321169 556509 470
409242 972818 525
734643 565307 509
908424 46536 525
284845 293346 389
755201 60536 509
513548 692349 509
312609 247304 407
479704 844002 525
638619 680666 442
186192 395578 443
600244 626171 447
6705 978328 525
693985 449427 509
229737 966281 525
593775 394633 470
634468 226715 509
640627 372651 509
597544 16453 470
623507 359224 470
242430 144928 443
459521 271804 449
583927 318914 470
167322 537090 470
900806 263011 525
570385 206259 470
258433 587027 470
283803 813343 509
496292 964776 525
990263 648636 525
958649 155697 525
886823 237116 525
927521 465521 525
876847 427648 525
535369 986077 525
606497 483145 470
210050 771730 509
261801 634533 509
27908 737341 509
678066 118876 509
398535 338183 441
293717 710382 509
635532 402040 509
890964 813460 525
507050 184866 449
742110 780170 468
327459 31212 443
924563 850605 476
251991 245626 350
388489 64847 443
59364 276150 443
155265 292966 443
700718 356103 509
861839 881211 432
995164 414632 525
101395 843851 525
4675 312659 443
22386 76119 340
227188 29597 386
808580 920444 525
563837 840183 525
915849 424136 525
656638 366482 509
681538 50119 509
658983 641993 429
726643 198761 509
484452 946694 525
730602 562237 509
374869 332423 441
221142 962695 525
546678 395079 470
943846 796669 525
314305 191121 443
634197 168518 509
229180 279141 443
198095 777957 509
247847 117725 443
251190 309682 407
45599 483489 449
186264 203153 360
645898 502431 509
444232 915561 525
252324 53056 443
596362 882234 525
835821 726268 468
278693 816227 509
342537 809235 509
897950 909366 445
833957 298702 509
845343 246458 525
920768 390665 525
41321 440322 449
449680 626449 509
274119 18383 443
997111 902727 507
129857 420757 449
387281 885387 525
260434 681684 509
995379 160536 525
361869 789741 509
663055 358857 509
842996 440496 525
382746 403136 436
714904 148770 509
857859 948028 507
416152 468590 444
969854 547876 525
163629 805049 509
507723 847046 525
687675 982683 525
605215 701917 509
117218 374479 443
423025 589202 470
487953 320290 449
641436 683193 442
2630 891621 525
771398 159522 509
762249 252253 509
908368 591689 525
401999 77735 443
163542 343559 443
61240 286991 443
308469 120036 443
333149 667996 509
269452 355849 441
265933 78069 443
662637 849709 525
852644 176272 525
130180 440918 449
793725 125509 509
759751 67944 509
994373 798900 525
919261 893658 476
553817 917540 525
596062 694524 509
571481 399879 470
747086 134505 509
454823 405551 449
4146 242403 443
176472 669917 509
412147 844523 525
455776 169961 449
987600 136238 525
544816 820354 509
688920 979899 525
462423 338754 449
938638 468499 525
531697 792870 509
829916 589568 509
623276 565555 447
444992 871820 525
318956 39652 443
85075 900545 525
36474 935014 525
529588 699329 509
418807 230231 449
377507 89875 443
835274 371681 509
516596 737036 509
877598 695651 525
790060 852400 525
71501 995047 525
1 999999 525
