744777 855478 525
99339 563582 470
371543 603807 470
376472 210847 443
636860 660172 429
329949 713089 509
616208 304994 470
262321 369217 441
328886 629956 509
998991 216777 525
429378 890116 525
156123 495584 449
424491 919198 525
214850 294574 443
201517 590898 470
748023 962145 525
246381 924305 525
395541 498527 449
54244 892722 525
857350 269329 525
7832 927481 525
419284 806433 509
798424 133080 509
895 42738 324
147108 397249 443
264983 196321 443
229832 913644 525
288376 809800 509
507808 41100 449
87827 552391 470
732015 876725 525
586125 153014 470
888664 42184 525
530769 937638 525
900014 169544 525
741328 287814 509
834630 445637 509
518834 490764 470
813704 949411 525
600803 526397 452
234936 537685 470
291656 229736 443
865692 325683 525
468534 473410 351
838974 638623 525
542775 749128 509
163470 875447 525
995698 828529 525
506684 766894 509
65167 322727 443
379620 24763 443
526097 619889 452
305060 125441 443
369470 640504 509
206228 791781 509
470808 188286 449
329002 151741 443
984792 504363 525
632581 814661 504
414416 55598 449
653700 848265 525
154417 826176 509
1419 727383 509
717196 780099 468
963627 110135 525
833974 984787 525
851203 870285 419
287713 233965 407
324706 987617 525
232562 893975 525
702775 810649 504
587229 862739 525
496320 569473 470
292917 680825 509
167164 684302 509
130467 294394 443
937520 612937 525
318143 271229 389
821172 484576 509
593061 652680 509
119880 845098 525
263343 296133 407
947035 727270 525
413466 994535 525
688065 88049 509
16449 263325 443
156270 926027 525
621899 948734 525
907363 60625 525
771139 750160 468
355271 647902 509
294942 358147 441
987964 403408 525
286418 208176 443
16272 739654 509
111375 752067 509
315893 268275 407
955512 199635 525
110714 783425 509
395113 945023 525
223182 307199 443
995432 127125 525
20993 623789 470
668269 844304 525
620379 988061 525
520300 352483 470
741732 198064 509
675720 730868 504
645357 478581 509
189669 791199 509
17519 20014 279
380191 45717 443
990080 46336 525
330840 502391 449
522092 364321 470
774016 130817 509
242648 230770 381
296387 95268 443
582013 880545 525
718646 900903 525
381396 646254 509
186766 235106 443
299791 758518 509
578231 527211 452
588288 141039 470
866637 160518 525
860246 777331 525
842877 61320 525
21177 899055 525
5333 683379 509
947403 281575 525
688440 324077 509
63934 508012 449
40614 511075 449
909311 334502 525
934465 604323 525
72340 739079 509
243474 594053 470
891354 23728 525
184753 328499 443
966065 249902 525
637630 631581 416
789205 688706 504
833124 315982 509
523676 826981 509
558363 215163 470
816990 192684 509
916989 70816 525
947178 689601 525
222798 835465 509
585640 738608 509
524722 604060 452
276394 286346 389
942246 833461 525
223512 434996 449
813237 60596 509
441818 64470 449
389801 793153 509
433926 644232 509
413587 528557 470
459047 651057 509
381680 461833 449
263132 581526 470
206602 844909 525
320915 901057 525
428757 774890 509
929915 690542 525
704246 493310 509
559923 573297 421
847766 579726 525
488752 321471 449
654305 629460 416
956980 303612 525
251533 906925 525
799480 561093 509
918809 331327 525
434180 775894 509
708009 217667 509
104696 277522 443
248129 274840 407
835431 92492 509
702082 244722 509
758321 859676 525
588028 500190 470
326051 540507 470
599638 935612 525
317972 587608 470
930962 478607 525
108385 857342 525
806313 547100 509
523474 851597 525
324599 313401 384
681516 671427 385
887455 497510 525
168874 60588 383
416421 366936 449
660778 911402 525
640712 735363 504
778043 182174 509
394848 467240 449
956555 123887 525
709858 483297 509
358758 757259 509
465697 539815 470
913320 552395 525
257089 646953 509
663432 275551 509
197907 526834 470
923441 607742 525
814830 970236 525
620438 716814 509
203477 790483 509
249105 703761 509
884386 538584 525
200904 888414 525
165493 881218 525
25396 502622 449
152946 508049 449
957969 260336 525
407937 14182 443
894918 575573 525
204949 269674 443
757430 930381 525
682300 400314 509
212181 686042 509
397886 952171 525
795238 521622 509
577080 529117 452
228356 123547 386
652931 66713 509
210568 45951 383
395826 867456 525
511375 605317 470
513729 606820 452
402233 974125 525
906653 466526 525
239078 834526 509
774277 675112 504
574174 220412 470
571372 41709 470
714074 88352 509
2028 476483 449
253944 428740 449
556917 846162 525
188884 559785 470
771488 699771 504
743378 360901 509
605523 396962 470
198457 380289 443
680821 38861 509
